…
    ## 
    ## ℹ Use `spec()` to retrieve the full column specification for this data.
    ## ℹ Specify the column types or set `show_col_types = FALSE` to quiet this message.

``` r
# the total number of homicides
homicide %>% 
  count(city_state)
```

    ## # A tibble: 50 × 2
    ##    city_state        n
    ##    <chr>         <int>
    ##  1 AlbuquerqueNM   378
    ##  2 AtlantaGA       973
    ##  3 BaltimoreMD    2827
    ##  4 Baton RougeLA   424
    ##  5 BirminghamAL    800
    ##  6 BostonMA        614
    ##  7 BuffaloNY       521
    ##  8 CharlotteNC     687
    ##  9 ChicagoIL      5535
    ## 10 CincinnatiOH    694
    ## # … with 40 more rows

``` r
# the number of unsolved homicides
homicide %>%  
  filter(resolution == "unsolved") %>% 
  count(city_state)
```

    ## # A tibble: 50 × 2
    ##    city_state        n
    ##    <chr>         <int>
    ##  1 AlbuquerqueNM   146
    ##  2 AtlantaGA       373
    ##  3 BaltimoreMD    1825
    ##  4 Baton RougeLA   196
    ##  5 BirminghamAL    347
    ##  6 BostonMA        310
    ##  7 BuffaloNY       319
    ##  8 CharlotteNC     206
    ##  9 ChicagoIL      4073
    ## 10 CincinnatiOH    309
    ## # … with 40 more rows
…
